<?xml version="1.0" encoding="UTF-8"?>
<svg width="40px" height="40px" viewBox="0 0 40 40" version="1.1" xmlns="http://www.w3.org/2000/svg" xmlns:xlink="http://www.w3.org/1999/xlink">
    <!-- Generator: Sketch 52.5 (67469) - http://www.bohemiancoding.com/sketch -->
    <title>arrow left</title>
    <desc>Created with Sketch.</desc>
    <defs>
        <circle id="path-1" cx="15" cy="15" r="15"></circle>
        <filter x="-26.7%" y="-23.3%" width="153.3%" height="153.3%" filterUnits="objectBoundingBox" id="filter-2">
            <feOffset dx="0" dy="1" in="SourceAlpha" result="shadowOffsetOuter1"></feOffset>
            <feGaussianBlur stdDeviation="2.5" in="shadowOffsetOuter1" result="shadowBlurOuter1"></feGaussianBlur>
            <feColorMatrix values="0 0 0 0 0.759061437   0 0 0 0 0.759061437   0 0 0 0 0.759061437  0 0 0 0.5 0" type="matrix" in="shadowBlurOuter1"></feColorMatrix>
        </filter>
    </defs>
    <g id="Page-1" stroke="none" stroke-width="1" fill="none" fill-rule="evenodd">
        <g id="Home-page" transform="translate(-123.000000, -6456.000000)">
            <g id="testimonial" transform="translate(38.000000, 6152.000000)">
                <g id="arrow" transform="translate(90.000000, 308.000000)">
                    <g id="arrow-left">
                        <g id="Oval">
                            <use fill="black" fill-opacity="1" filter="url(#filter-2)" xlink:href="#path-1"></use>
                            <use fill="#FFFFFF" fill-rule="evenodd" xlink:href="#path-1"></use>
                        </g>
                        <g id="iconfinder_arrow_right_718910-(2)" transform="translate(14.500000, 15.000000) scale(-1, 1) translate(-14.500000, -15.000000) translate(12.000000, 10.000000)" fill="#2A2A2A">
                            <path d="M0.625078125,9.49984375 C0.465078125,9.49984375 0.305234375,9.43351389 0.183046875,9.30119346 C-0.061015625,9.03621331 -0.061015625,8.60651118 0.183046875,8.34153103 L3.49117188,4.74987946 L0.183046875,1.15839754 C-0.061015625,0.89341739 -0.061015625,0.463715263 0.183046875,0.198735113 C0.427109375,-0.0662450376 0.822890625,-0.0662450376 1.06695313,0.198735113 L4.81695313,4.27013307 C5.06101563,4.53511322 5.06101563,4.96481535 4.81695313,5.2297955 L1.06695313,9.30119346 C0.944921875,9.43351389 0.785078125,9.49984375 0.625078125,9.49984375 Z" id="Path"></path>
                        </g>
                    </g>
                </g>
            </g>
        </g>
    </g>
</svg>