<?xml version="1.0" encoding="UTF-8"?>
<svg width="100px" height="87px" viewBox="0 0 100 87" version="1.1" xmlns="http://www.w3.org/2000/svg" xmlns:xlink="http://www.w3.org/1999/xlink">
    <!-- Generator: Sketch 52.5 (67469) - http://www.bohemiancoding.com/sketch -->
    <title>“</title>
    <desc>Created with Sketch.</desc>
    <g id="Page-1" stroke="none" stroke-width="1" fill="none" fill-rule="evenodd">
        <g id="Home-page" transform="translate(-357.000000, -6279.000000)" fill="#F5F9FC">
            <g id="testimonial" transform="translate(38.000000, 6152.000000)">
                <path d="M398.412507,127 L419,127 L398.128542,170.898332 L419,170.898332 L419,213.792453 L376.54717,213.792453 L376.54717,170.898332 L398.412507,127 Z M340.723355,127 L361.45283,127 L340.439389,170.898332 L361.45283,170.898332 L361.45283,213.792453 L319,213.792453 L319,170.898332 L340.723355,127 Z" id="“"></path>
            </g>
        </g>
    </g>
</svg>