<?xml version="1.0" encoding="UTF-8"?>
<svg width="1366px" height="434px" viewBox="0 0 1366 434" version="1.1" xmlns="http://www.w3.org/2000/svg" xmlns:xlink="http://www.w3.org/1999/xlink">
    <!-- Generator: Sketch 52.5 (67469) - http://www.bohemiancoding.com/sketch -->
    <title>Rectangle 6</title>
    <desc>Created with Sketch.</desc>
    <defs>
        <linearGradient x1="9.30506562%" y1="3.75102481%" x2="116.805217%" y2="109.896975%" id="linearGradient-1">
            <stop stop-color="#030208" offset="0%"></stop>
            <stop stop-color="#0A0A2C" offset="100%"></stop>
        </linearGradient>
    </defs>
    <g id="Page-1" stroke="none" stroke-width="1" fill="none" fill-rule="evenodd">
        <g id="Home-page" transform="translate(0.000000, -7129.000000)" fill="url(#linearGradient-1)">
            <g id="footer" transform="translate(0.000000, 7129.000000)">
                <polygon id="Rectangle-6" points="9.11123607e-13 0 1366 0 1366 435.273263 0 434.055934"></polygon>
            </g>
        </g>
    </g>
</svg>